{
  "name": "Yevhen Volkov",
  "projectId": "27864680",
  "rating": 60,
  "errors": [
    "Failed to send 'getFile' request with {\"uri\":\"http://127.0.0.1:8080/api/files/notes.txt\",\"method\":\"get\",\"timeout\":3000,\"json\":true,\"resolveWithFullResponse\":true,\"body\":{},\"query\":{},\"headers\":{}} config,Error: extension should equal extension of created file #2, Response body: {\"message\":\"Success\",\"filename\":\"notes.txt\",\"content\":\"testcontent\",\"extension\":\".txt\",\"uploadedDate\":\"2021-07-07T14:00:49.034Z\"},Response status: 200;",
    "Failed to send 'getFile' request with {\"uri\":\"http://127.0.0.1:8080/api/files/data.test.json\",\"method\":\"get\",\"timeout\":3000,\"json\":true,\"resolveWithFullResponse\":true,\"body\":{},\"query\":{},\"headers\":{}} config,Error: extension should equal extension of created file #2, Response body: {\"message\":\"Success\",\"filename\":\"data.test.json\",\"content\":\"{\\\"message\\\": \\\"jsondata\\\"}\",\"extension\":\".json\",\"uploadedDate\":\"2021-07-07T14:00:49.054Z\"},Response status: 200;",
    "Failed to send 'createFile' request with {\"uri\":\"http://127.0.0.1:8080/api/files\",\"method\":\"post\",\"timeout\":3000,\"json\":true,\"resolveWithFullResponse\":true,\"body\":{\"content\":\"{\\\"message\\\": \\\"jsondata\\\"}\"},\"query\":{},\"headers\":{}} config,Error: No response recieved, Response body: undefined,Response status: undefined;",
    "Failed to send 'createFile' request with {\"uri\":\"http://127.0.0.1:8080/api/files\",\"method\":\"post\",\"timeout\":3000,\"json\":true,\"resolveWithFullResponse\":true,\"body\":{\"filename\":\"{\\\"message\\\": \\\"jsondata\\\"}\"},\"query\":{},\"headers\":{}} config,Error: No response recieved, Response body: undefined,Response status: undefined;"
  ]
}
